<svg width="18" height="18" viewBox="0 0 18 18" fill="none" xmlns="http://www.w3.org/2000/svg">
<path fill-rule="evenodd" clip-rule="evenodd" d="M12.2273 16.0004H5.76561C3.39207 16.0004 1.57118 15.1937 2.08839 11.9469L2.69064 7.54673C3.00947 5.92666 4.10767 5.30664 5.07126 5.30664H12.95C13.9278 5.30664 14.9622 5.97333 15.3306 7.54673L15.9329 11.9469C16.3721 14.827 14.6008 16.0004 12.2273 16.0004Z" stroke="#242424" stroke-linecap="round" stroke-linejoin="round"/>
<path d="M12.3354 5.14682C12.3354 3.40889 10.8381 2.00003 8.99119 2.00003V2.00003C8.1018 1.99648 7.24754 2.32645 6.61731 2.91697C5.98708 3.5075 5.6328 4.30992 5.63281 5.14682H5.63281" stroke="#242424" stroke-linecap="round" stroke-linejoin="round"/>
<path d="M11.2821 8.42905H11.2467" stroke="#242424" stroke-width="1.5" stroke-linecap="round" stroke-linejoin="round"/>
<path d="M6.77041 8.42905H6.73498" stroke="#242424" stroke-width="1.5" stroke-linecap="round" stroke-linejoin="round"/>
</svg>