<svg width="33" height="22" viewBox="0 0 33 22" fill="none" xmlns="http://www.w3.org/2000/svg">
<rect y="0.998047" width="32.0039" height="20.0049" rx="2" fill="#232D8A"/>
<path d="M25.5242 8.08398H24.1409C23.7228 8.08398 23.4011 8.19836 23.2081 8.57009L20.5703 13.9173H22.436C22.436 13.9173 22.7577 13.2024 22.8221 13.0309C23.0151 13.0309 24.8486 13.0309 25.106 13.0309C25.1703 13.231 25.3311 13.8887 25.3311 13.8887H27.0039L25.5242 8.08398ZM23.3367 11.8299C23.4976 11.4868 24.0444 10.2 24.0444 10.2C24.0444 10.2286 24.2053 9.85685 24.2696 9.65669L24.3983 10.1714C24.3983 10.1714 24.7521 11.5725 24.8165 11.8585H23.3367V11.8299Z" fill="white"/>
<path d="M20.7006 12.0013C20.7006 13.2023 19.4782 14.0029 17.5803 14.0029C16.7761 14.0029 16.0041 13.86 15.5859 13.6884L15.8433 12.373L16.0685 12.4588C16.6475 12.6876 17.0335 12.7734 17.7412 12.7734C18.2559 12.7734 18.8027 12.6018 18.8027 12.2015C18.8027 11.9441 18.5775 11.7725 17.8699 11.4866C17.1943 11.2007 16.2936 10.7431 16.2936 9.91389C16.2936 8.7701 17.5482 7.99805 19.3174 7.99805C19.9929 7.99805 20.5719 8.11243 20.9258 8.2554L20.6684 9.51356L20.5398 9.39919C20.2181 9.28481 19.7999 9.17043 19.1887 9.17043C18.5132 9.19902 18.1915 9.45638 18.1915 9.68513C18.1915 9.94249 18.5775 10.1426 19.1887 10.4C20.2181 10.8289 20.7006 11.315 20.7006 12.0013Z" fill="white"/>
<path d="M5 8.14172L5.03217 8.02734H7.7986C8.18461 8.02734 8.47412 8.14172 8.57062 8.51345L9.18181 11.087C8.57062 9.71443 7.15524 8.59924 5 8.14172Z" fill="white"/>
<path d="M13.0783 8.08328L10.2797 13.888H8.38183L6.77344 9.02691C7.93148 9.68458 8.89651 10.714 9.25036 11.4289L9.44336 12.0293L11.1804 8.05469H13.0783V8.08328Z" fill="white"/>
<path d="M13.8134 8.05469H15.5826L14.4567 13.888H12.6875L13.8134 8.05469Z" fill="white"/>
</svg>
