<svg width="32" height="32" viewBox="0 0 32 32" fill="none" xmlns="http://www.w3.org/2000/svg">
<g opacity="0.5">
<path d="M27 16.3V20.6C24.8 20.95 23.6 20.65 22.35 20.3C20.8 19.9 19.2 19.45 15.9 20.05C13.45 20.5 12.2 20.15 10.9 19.8C9.45 19.4 7.95 19 5 19.5V16.3C5 14.75 3.75 13.5 2.2 13.5H2V14.5H2.2C3.2 14.5 4 15.3 4 16.3V27.75C4 29.3 5.25 30.55 6.8 30.55H25.25C26.8 30.55 28.05 29.3 28.05 27.75V16.3C28.05 15.3 28.85 14.5 29.85 14.5H30V13.5H29.8C28.25 13.5 27 14.75 27 16.3ZM25.2 29.5H6.8C5.8 29.5 5 28.7 5 27.7V20.5C7.85 20.05 9.25 20.4 10.65 20.8C11.55 21.05 12.5 21.3 13.8 21.3C14.45 21.3 15.2 21.25 16.1 21.05C19.2 20.5 20.7 20.9 22.1 21.25C23 21.5 23.95 21.75 25.25 21.75C25.75 21.75 26.35 21.7 27 21.6V27.75C27 28.7 26.2 29.5 25.2 29.5Z" fill="#242424"/>
<path d="M15.3504 23.4H14.5004L12.9004 25.85V26.35H14.6504V27.35H15.3504V26.35H15.8504V25.8H15.3504V23.4ZM14.6504 24.7V25.75H13.6004L14.3004 24.7C14.4004 24.5 14.5004 24.3 14.6504 24.05C14.6504 24.25 14.6504 24.45 14.6504 24.7Z" fill="#242424"/>
<path d="M17.6492 23.35C16.7492 23.35 16.1992 24.15 16.1992 25.4C16.1992 26.6 16.6992 27.4 17.5992 27.4C18.5492 27.4 18.9992 26.6 18.9992 25.35C18.9992 24.15 18.5492 23.35 17.6492 23.35ZM17.5992 26.8C17.1992 26.8 16.9492 26.3 16.9492 25.35C16.9492 24.35 17.1992 23.9 17.5992 23.9C18.0492 23.9 18.2492 24.45 18.2492 25.35C18.2492 26.25 18.0492 26.8 17.5992 26.8Z" fill="#242424"/>
</g>
</svg>
