<svg width="32" height="32" viewBox="0 0 32 32" fill="none" xmlns="http://www.w3.org/2000/svg">
<g opacity="0.5">
<path d="M3.54945 29.05C4.09945 29.95 5.09945 30.5 6.14945 30.5H25.8495C26.8995 30.5 27.8995 29.95 28.4495 29.05C28.9995 28.15 29.0495 27 28.5995 26.05L21.5995 12.1L26.8495 6.85001L26.1495 6.15001L21.1495 11.15L18.7495 6.40001C18.2495 5.35001 17.1495 4.70001 15.9995 4.70001C14.8495 4.70001 13.7995 5.35001 13.2495 6.40001L10.8495 11.15L5.84945 6.15001L5.14945 6.85001L10.3995 12.1L3.39945 26.05C2.94945 27 2.99945 28.15 3.54945 29.05ZM6.14945 29.5C5.59945 29.5 5.09945 29.3 4.74945 28.95L15.9995 17.7L27.2495 28.95C26.8495 29.3 26.3495 29.5 25.8495 29.5H6.14945ZM27.6995 26.5C27.9495 27 27.9995 27.55 27.7995 28.1L16.6995 17L20.8495 12.85L27.6995 26.5ZM14.1495 6.80001C14.4995 6.10001 15.1995 5.65001 15.9995 5.65001C16.7995 5.65001 17.4995 6.10001 17.8495 6.80001L20.3995 11.85L15.9995 16.25L11.5995 11.85L14.1495 6.80001ZM4.29945 26.5L11.1495 12.85L15.2995 17L4.19945 28.1C3.99945 27.55 4.04945 27 4.29945 26.5Z" fill="#242424"/>
</g>
</svg>
