<svg width="22" height="22" viewBox="0 0 22 22" fill="none" xmlns="http://www.w3.org/2000/svg">
<path fill-rule="evenodd" clip-rule="evenodd" d="M8.9233 2.66581C7.92762 3.24864 6.97651 4.36668 6.8586 6.42226H4.92708C4.48925 6.42226 4.125 6.79184 4.125 7.23608V19.1237C4.125 19.5679 4.48925 19.9375 4.92708 19.9375H17.0729C17.5107 19.9375 17.875 19.5679 17.875 19.1237V10.904C17.5983 10.9658 17.3107 10.9988 17.0156 11V19.0655H4.98438V7.29421H13.0107C13.0036 7.19706 13 7.09895 13 7C13 6.8038 13.0141 6.6109 13.0414 6.42226H7.71958C7.83234 4.69554 8.61432 3.85333 9.35275 3.42108C9.76584 3.17927 10.1829 3.05646 10.4993 2.99473C10.6566 2.96402 10.7866 2.94891 10.8753 2.94149C10.9195 2.93779 10.9533 2.93603 10.9747 2.93519L10.9973 2.93451L11 2.93447L11.0027 2.93451L11.0253 2.93519C11.0467 2.93603 11.0805 2.93779 11.1247 2.94149C11.2134 2.94891 11.3434 2.96402 11.5007 2.99473C11.8171 3.05646 12.2342 3.17927 12.6473 3.42108C13.0578 3.66141 13.4818 4.02848 13.7968 4.60384C13.9769 4.3635 14.1834 4.1441 14.412 3.94994C14.0388 3.36293 13.5631 2.95051 13.0767 2.66581C12.5588 2.36265 12.0449 2.21297 11.663 2.13847C11.4713 2.10105 11.3103 2.0821 11.1953 2.07249C11.1377 2.06767 11.0915 2.06518 11.0583 2.06389C11.0418 2.06324 11.0285 2.06289 11.0187 2.06271L11.0066 2.06253L11.0026 2.06251L11.0005 2.0625C11.0005 2.0625 11 2.0625 11 2.49848C11 2.0625 10.9989 2.0625 10.9989 2.0625L10.9974 2.06251L10.9934 2.06253L10.9813 2.06271C10.9715 2.06289 10.9582 2.06324 10.9417 2.06389C10.9085 2.06518 10.8623 2.06767 10.8047 2.07249C10.6897 2.0821 10.5287 2.10105 10.337 2.13847C9.95515 2.21297 9.44119 2.36265 8.9233 2.66581Z" fill="#242424"/>
<circle cx="17" cy="7" r="2" fill="#242424"/>
</svg>
