<svg width="22" height="22" viewBox="0 0 22 22" fill="none" xmlns="http://www.w3.org/2000/svg">
<path fill-rule="evenodd" clip-rule="evenodd" d="M17.875 12.9367V19.1237C17.875 19.5679 17.5107 19.9375 17.0729 19.9375H4.92708C4.48925 19.9375 4.125 19.5679 4.125 19.1237V7.23608C4.125 6.79184 4.48925 6.42226 4.92708 6.42226H6.8586C6.97651 4.36668 7.92762 3.24864 8.9233 2.66581C9.44119 2.36265 9.95515 2.21297 10.337 2.13847C10.5287 2.10105 10.6897 2.0821 10.8047 2.07249C10.8623 2.06767 10.9085 2.06518 10.9417 2.06389C10.9582 2.06324 10.9715 2.06289 10.9813 2.06271L10.9934 2.06253L10.9974 2.06251L10.9989 2.0625C10.9989 2.0625 11 2.0625 11 2.49848C11 2.0625 11.0005 2.0625 11.0005 2.0625L11.0026 2.06251L11.0066 2.06253L11.0187 2.06271C11.0285 2.06289 11.0418 2.06324 11.0583 2.06389C11.0915 2.06518 11.1377 2.06767 11.1953 2.07249C11.3103 2.0821 11.4713 2.10105 11.663 2.13847C12.01 2.20618 12.4662 2.33598 12.9352 2.58664C12.7123 2.79201 12.5051 3.01405 12.3154 3.25078C12.0173 3.11767 11.7321 3.03987 11.5007 2.99473C11.3434 2.96402 11.2134 2.94891 11.1247 2.94149C11.0805 2.93779 11.0467 2.93603 11.0253 2.93519L11.0027 2.93451L11 2.93447L10.9973 2.93451L10.9747 2.93519C10.9533 2.93603 10.9195 2.93779 10.8753 2.94149C10.7866 2.94891 10.6566 2.96402 10.4993 2.99473C10.1829 3.05646 9.76584 3.17927 9.35275 3.42108C8.61432 3.85333 7.83234 4.69554 7.71958 6.42226H11.0275C11.0093 6.61239 11 6.80511 11 7C11 7.09864 11.0024 7.19673 11.0071 7.29421H4.98438V19.0655H17.0156V13C17.3075 12.9992 17.5944 12.9777 17.875 12.9367Z" fill="#242424"/>
<path d="M17.875 12.9367H18.375C18.375 12.7914 18.3119 12.6534 18.202 12.5584C18.0921 12.4634 17.9464 12.4209 17.8027 12.4419L17.875 12.9367ZM6.8586 6.42226V6.92226C7.12362 6.92226 7.34261 6.71547 7.35778 6.45089L6.8586 6.42226ZM8.9233 2.66581L8.67071 2.2343V2.2343L8.9233 2.66581ZM10.337 2.13847L10.2412 1.64772V1.64772L10.337 2.13847ZM10.8047 2.07249L10.763 1.57423V1.57423L10.8047 2.07249ZM10.9417 2.06389L10.9612 2.56351H10.9612L10.9417 2.06389ZM10.9813 2.06271L10.9741 1.56276L10.9719 1.5628L10.9813 2.06271ZM10.9934 2.06253L10.9898 1.56253L10.9862 1.56259L10.9934 2.06253ZM10.9974 2.06251L10.9953 1.56251L10.9938 1.56252L10.9974 2.06251ZM10.9989 2.0625V1.5625L10.9968 1.5625L10.9989 2.0625ZM10.5 2.49848C10.5 2.77462 10.7239 2.99848 11 2.99848C11.2761 2.99848 11.5 2.77462 11.5 2.49848H10.5ZM11.0005 2.0625L11.002 1.5625H11.0005V2.0625ZM11.0026 2.06251L11.0062 1.56251L11.0041 1.56251L11.0026 2.06251ZM11.0066 2.06253L11.0138 1.56257L11.0102 1.56255L11.0066 2.06253ZM11.0187 2.06271L11.0281 1.56279L11.0259 1.56276L11.0187 2.06271ZM11.0583 2.06389L11.0388 2.56351H11.0388L11.0583 2.06389ZM11.1953 2.07249L11.1536 2.57075L11.1953 2.07249ZM11.663 2.13847L11.5673 2.62921L11.663 2.13847ZM12.9352 2.58664L13.274 2.95433C13.3931 2.8446 13.4517 2.68399 13.4312 2.52337C13.4107 2.36274 13.3137 2.22198 13.1709 2.14566L12.9352 2.58664ZM12.3154 3.25078L12.1115 3.70733C12.3192 3.80007 12.5633 3.74094 12.7055 3.56345L12.3154 3.25078ZM11.5007 2.99473L11.5965 2.50398L11.5965 2.50398L11.5007 2.99473ZM11.1247 2.94149L11.0831 3.43975L11.1247 2.94149ZM11.0253 2.93519L11.0448 2.43555L11.0404 2.43542L11.0253 2.93519ZM11.0027 2.93451L11.0178 2.43468L11.0102 2.43457L11.0027 2.93451ZM11 2.93447L11.0076 2.43453C11.0025 2.43445 10.9975 2.43445 10.9924 2.43453L11 2.93447ZM10.9973 2.93451L10.9898 2.43451L10.9822 2.43474L10.9973 2.93451ZM10.9747 2.93519L10.9596 2.4354L10.9552 2.43557L10.9747 2.93519ZM10.8753 2.94149L10.9169 3.43975L10.8753 2.94149ZM10.4993 2.99473L10.595 3.48547L10.595 3.48547L10.4993 2.99473ZM9.35275 3.42108L9.60534 3.85259L9.35275 3.42108ZM7.71958 6.42226L7.22064 6.38967C7.21163 6.52765 7.26016 6.66319 7.35469 6.7641C7.44922 6.865 7.58131 6.92226 7.71958 6.92226V6.42226ZM11.0275 6.42226L11.5252 6.46981C11.5386 6.32957 11.4922 6.19018 11.3974 6.08594C11.3027 5.98169 11.1683 5.92226 11.0275 5.92226V6.42226ZM11.0071 7.29421V7.79421C11.1439 7.79421 11.2747 7.73816 11.3691 7.63913C11.4634 7.5401 11.5131 7.40673 11.5065 7.27009L11.0071 7.29421ZM4.98438 7.29421V6.79421C4.70823 6.79421 4.48438 7.01806 4.48438 7.29421H4.98438ZM4.98438 19.0655H4.48438C4.48438 19.3417 4.70823 19.5655 4.98438 19.5655V19.0655ZM17.0156 19.0655V19.5655C17.2918 19.5655 17.5156 19.3417 17.5156 19.0655H17.0156ZM17.0156 13L17.0144 12.5C16.7387 12.5007 16.5156 12.7243 16.5156 13H17.0156ZM17.375 12.9367V19.1237H18.375V12.9367H17.375ZM17.375 19.1237C17.375 19.2986 17.2278 19.4375 17.0729 19.4375V20.4375C17.7937 20.4375 18.375 19.8372 18.375 19.1237H17.375ZM17.0729 19.4375H4.92708V20.4375H17.0729V19.4375ZM4.92708 19.4375C4.77222 19.4375 4.625 19.2986 4.625 19.1237H3.625C3.625 19.8372 4.20629 20.4375 4.92708 20.4375V19.4375ZM4.625 19.1237V7.23608H3.625V19.1237H4.625ZM4.625 7.23608C4.625 7.06111 4.77222 6.92226 4.92708 6.92226V5.92226C4.20629 5.92226 3.625 6.52257 3.625 7.23608H4.625ZM4.92708 6.92226H6.8586V5.92226H4.92708V6.92226ZM7.35778 6.45089C7.4659 4.56602 8.32151 3.59744 9.17589 3.09732L8.67071 2.2343C7.53373 2.89985 6.48713 4.16734 6.35942 6.39362L7.35778 6.45089ZM9.17589 3.09732C9.6325 2.83003 10.0896 2.69617 10.4327 2.62921L10.2412 1.64772C9.82074 1.72977 9.24988 1.89528 8.67071 2.2343L9.17589 3.09732ZM10.4327 2.62921C10.6042 2.59575 10.7469 2.57907 10.8464 2.57075L10.763 1.57423C10.6325 1.58514 10.4533 1.60635 10.2412 1.64772L10.4327 2.62921ZM10.8464 2.57075C10.8961 2.56659 10.9349 2.56453 10.9612 2.56351L10.9222 1.56427C10.8821 1.56583 10.8285 1.56876 10.763 1.57423L10.8464 2.57075ZM10.9612 2.56351C10.9743 2.56299 10.9842 2.56274 10.9908 2.56262L10.9719 1.5628C10.9588 1.56304 10.9422 1.56348 10.9222 1.56427L10.9612 2.56351ZM10.9885 2.56266L11.0006 2.56248L10.9862 1.56259L10.9741 1.56276L10.9885 2.56266ZM10.9969 2.56252L11.0009 2.56249L10.9938 1.56252L10.9898 1.56255L10.9969 2.56252ZM10.9995 2.5625L11.001 2.5625L10.9968 1.5625L10.9953 1.56251L10.9995 2.5625ZM10.9989 2.0625C10.9989 2.5625 10.91 2.55453 10.8239 2.53089C10.7996 2.52108 10.7365 2.48812 10.6992 2.46278C10.6383 2.41718 10.6015 2.36788 10.5826 2.33947C10.5459 2.28434 10.5292 2.23494 10.5241 2.21921C10.5114 2.18087 10.5064 2.14954 10.5053 2.14267C10.5019 2.12162 10.5007 2.10492 10.5004 2.10178C10.4996 2.0911 10.4993 2.08281 10.4992 2.08168C10.4991 2.0771 10.4991 2.07454 10.4991 2.07717C10.4992 2.08127 10.4993 2.09276 10.4994 2.11962C10.4997 2.17276 10.5 2.28068 10.5 2.49848H11.5C11.5 2.28029 11.4997 2.17023 11.4994 2.11438C11.4993 2.08674 11.4991 2.07098 11.499 2.06145C11.4989 2.05727 11.4988 2.0513 11.4986 2.04503C11.4985 2.04304 11.4982 2.03433 11.4973 2.02344C11.4971 2.02018 11.4958 2.00344 11.4924 1.98236C11.4913 1.97547 11.4863 1.94413 11.4737 1.90579C11.4685 1.89006 11.4518 1.84066 11.4151 1.78553C11.3962 1.75712 11.3594 1.70782 11.2985 1.66222C11.2612 1.63688 11.1981 1.60392 11.1738 1.59411C11.0878 1.57047 10.9989 1.5625 10.9989 2.0625ZM11.5 2.49848C11.5 2.28058 11.5001 2.17208 11.5003 2.11821C11.5003 2.09114 11.5004 2.0785 11.5004 2.07295C11.5005 2.0699 11.5005 2.07017 11.5004 2.07183C11.5004 2.07213 11.5004 2.07586 11.5002 2.08077C11.5001 2.08216 11.4999 2.09 11.4991 2.09997C11.4989 2.10292 11.4978 2.11842 11.4948 2.13797C11.4938 2.14426 11.4895 2.17356 11.4784 2.20959C11.474 2.22394 11.4591 2.2715 11.4259 2.32537C11.3983 2.36545 11.3417 2.42803 11.3146 2.45152C11.1671 2.53394 11.0005 2.5625 11.0005 2.0625C11.0005 1.5625 10.834 1.59106 10.6864 1.67348C10.6594 1.69697 10.6028 1.75955 10.5752 1.79963C10.5419 1.8535 10.5271 1.90106 10.5227 1.91541C10.5116 1.95144 10.5072 1.98074 10.5063 1.98703C10.5033 2.00659 10.5022 2.0221 10.5019 2.02505C10.5012 2.03505 10.5009 2.04294 10.5009 2.04444C10.5007 2.04957 10.5006 2.05372 10.5006 2.05487C10.5005 2.05823 10.5005 2.06191 10.5005 2.06568C10.5004 2.07375 10.5003 2.08836 10.5003 2.11579C10.5001 2.17091 10.5 2.2804 10.5 2.49848H11.5ZM10.999 2.5625L11.0011 2.5625L11.0041 1.56251L11.002 1.5625L10.999 2.5625ZM10.9991 2.56249L11.0031 2.56252L11.0102 1.56255L11.0062 1.56252L10.9991 2.56249ZM10.9994 2.56248L11.0115 2.56266L11.0259 1.56276L11.0138 1.56259L10.9994 2.56248ZM11.0092 2.56262C11.0158 2.56274 11.0257 2.56299 11.0388 2.56351L11.0778 1.56427C11.0578 1.56348 11.0412 1.56304 11.0281 1.5628L11.0092 2.56262ZM11.0388 2.56351C11.0651 2.56453 11.1039 2.56659 11.1536 2.57075L11.237 1.57423C11.1715 1.56876 11.1179 1.56583 11.0778 1.56427L11.0388 2.56351ZM11.1536 2.57075C11.2531 2.57907 11.3958 2.59575 11.5673 2.62921L11.7588 1.64772C11.5467 1.60635 11.3675 1.58514 11.237 1.57423L11.1536 2.57075ZM11.5673 2.62921C11.8788 2.69 12.285 2.80608 12.6995 3.02762L13.1709 2.14566C12.6473 1.86588 12.1413 1.72235 11.7588 1.64772L11.5673 2.62921ZM12.7055 3.56345C12.8795 3.34635 13.0696 3.1427 13.274 2.95433L12.5964 2.21895C12.3551 2.44132 12.1306 2.68175 11.9252 2.9381L12.7055 3.56345ZM11.405 3.48547C11.6072 3.52492 11.8548 3.5927 12.1115 3.70733L12.5192 2.79422C12.1797 2.64264 11.857 2.55482 11.5965 2.50398L11.405 3.48547ZM11.0831 3.43975C11.1562 3.44587 11.2679 3.45873 11.405 3.48547L11.5965 2.50398C11.4188 2.46932 11.2706 2.45195 11.1664 2.44323L11.0831 3.43975ZM11.0058 3.43481C11.0203 3.43538 11.0467 3.43671 11.0831 3.43975L11.1664 2.44323C11.1143 2.43887 11.0731 2.43668 11.0448 2.43557L11.0058 3.43481ZM10.9876 3.43428L11.0102 3.43496L11.0404 2.43542L11.0178 2.43474L10.9876 3.43428ZM10.9924 3.43441L10.9951 3.43445L11.0102 2.43457L11.0076 2.43453L10.9924 3.43441ZM11.0049 3.43445L11.0076 3.43441L10.9924 2.43453L10.9898 2.43457L11.0049 3.43445ZM10.9898 3.43496L11.0124 3.43428L10.9822 2.43474L10.9596 2.43542L10.9898 3.43496ZM10.9169 3.43975C10.9533 3.43671 10.9797 3.43538 10.9942 3.43481L10.9552 2.43557C10.9269 2.43668 10.8857 2.43887 10.8336 2.44323L10.9169 3.43975ZM10.595 3.48547C10.7321 3.45873 10.8438 3.44587 10.9169 3.43975L10.8336 2.44323C10.7294 2.45195 10.5812 2.46932 10.4035 2.50398L10.595 3.48547ZM9.60534 3.85259C9.95716 3.64664 10.3173 3.53967 10.595 3.48547L10.4035 2.50398C10.0485 2.57326 9.57453 2.71189 9.10016 2.98957L9.60534 3.85259ZM8.21852 6.45484C8.32008 4.89959 9.00501 4.204 9.60534 3.85259L9.10016 2.98957C8.22363 3.50266 7.3446 4.49149 7.22064 6.38967L8.21852 6.45484ZM11.0275 5.92226H7.71958V6.92226H11.0275V5.92226ZM11.5 7C11.5 6.82101 11.5085 6.64416 11.5252 6.46981L10.5297 6.3747C10.5101 6.58062 10.5 6.78921 10.5 7H11.5ZM11.5065 7.27009C11.5022 7.18064 11.5 7.0906 11.5 7H10.5C10.5 7.10669 10.5026 7.21282 10.5077 7.31832L11.5065 7.27009ZM4.98438 7.79421H11.0071V6.79421H4.98438V7.79421ZM5.48438 19.0655V7.29421H4.48438V19.0655H5.48438ZM17.0156 18.5655H4.98438V19.5655H17.0156V18.5655ZM16.5156 13V19.0655H17.5156V13H16.5156ZM17.8027 12.4419C17.5455 12.4795 17.2823 12.4993 17.0144 12.5L17.0169 13.5C17.3326 13.4992 17.6432 13.4758 17.9473 13.4314L17.8027 12.4419Z" fill="#242424"/>
<circle cx="17" cy="7" r="3" fill="#242424"/>
</svg>
