<svg width="24" height="24" viewBox="0 0 24 24" fill="none" xmlns="http://www.w3.org/2000/svg">
<path d="M16.7992 8.4L9.6397 15.6L7.19922 13.1457" stroke="black" stroke-width="2" stroke-linecap="round" stroke-linejoin="round"/>
</svg>
