<svg class="lds-default" width="100%" height="100%" viewBox="0 0 100 100" preserveAspectRatio="xMidYMid" xmlns="http://www.w3.org/2000/svg"><circle cx="70" cy="50" fill="undefined" r="3.6">
  <animate attributeName="r" values="3.5999999999999996;3.5999999999999996;6;3.5999999999999996;3.5999999999999996" times="0;0.1;0.2;0.3;1" dur="1s" repeatCount="indefinite" begin="-0.875s"></animate>
  <animate attributeName="fill" values="#FFF;#FFF;#FFF;#FFF;#FFF" repeatCount="indefinite" times="0;0.1;0.2;0.3;1" dur="1s" begin="-0.875s"></animate>
</circle><circle cx="64.142" cy="64.142" fill="undefined" r="3.6">
  <animate attributeName="r" values="3.5999999999999996;3.5999999999999996;6;3.5999999999999996;3.5999999999999996" times="0;0.1;0.2;0.3;1" dur="1s" repeatCount="indefinite" begin="-0.75s"></animate>
  <animate attributeName="fill" values="#FFF;#FFF;#FFF;#FFF;#FFF" repeatCount="indefinite" times="0;0.1;0.2;0.3;1" dur="1s" begin="-0.75s"></animate>
</circle><circle cx="50" cy="70" fill="undefined" r="3.6">
  <animate attributeName="r" values="3.5999999999999996;3.5999999999999996;6;3.5999999999999996;3.5999999999999996" times="0;0.1;0.2;0.3;1" dur="1s" repeatCount="indefinite" begin="-0.625s"></animate>
  <animate attributeName="fill" values="#FFF;#FFF;#FFF;#FFF;#FFF" repeatCount="indefinite" times="0;0.1;0.2;0.3;1" dur="1s" begin="-0.625s"></animate>
</circle><circle cx="35.858" cy="64.142" fill="undefined" r="4.56">
  <animate attributeName="r" values="3.5999999999999996;3.5999999999999996;6;3.5999999999999996;3.5999999999999996" times="0;0.1;0.2;0.3;1" dur="1s" repeatCount="indefinite" begin="-0.5s"></animate>
  <animate attributeName="fill" values="#FFF;#FFF;#FFF;#FFF;#FFF" repeatCount="indefinite" times="0;0.1;0.2;0.3;1" dur="1s" begin="-0.5s"></animate>
</circle><circle cx="30" cy="50" fill="undefined" r="5.76">
  <animate attributeName="r" values="3.5999999999999996;3.5999999999999996;6;3.5999999999999996;3.5999999999999996" times="0;0.1;0.2;0.3;1" dur="1s" repeatCount="indefinite" begin="-0.375s"></animate>
  <animate attributeName="fill" values="#FFF;#FFF;#FFF;#FFF;#FFF" repeatCount="indefinite" times="0;0.1;0.2;0.3;1" dur="1s" begin="-0.375s"></animate>
</circle><circle cx="35.858" cy="35.858" fill="undefined" r="5.04">
  <animate attributeName="r" values="3.5999999999999996;3.5999999999999996;6;3.5999999999999996;3.5999999999999996" times="0;0.1;0.2;0.3;1" dur="1s" repeatCount="indefinite" begin="-0.25s"></animate>
  <animate attributeName="fill" values="#FFF;#FFF;#FFF;#FFF;#FFF" repeatCount="indefinite" times="0;0.1;0.2;0.3;1" dur="1s" begin="-0.25s"></animate>
</circle><circle cx="50" cy="30" fill="undefined" r="3.84">
  <animate attributeName="r" values="3.5999999999999996;3.5999999999999996;6;3.5999999999999996;3.5999999999999996" times="0;0.1;0.2;0.3;1" dur="1s" repeatCount="indefinite" begin="-0.125s"></animate>
  <animate attributeName="fill" values="#FFF;#FFF;#FFF;#FFF;#FFF" repeatCount="indefinite" times="0;0.1;0.2;0.3;1" dur="1s" begin="-0.125s"></animate>
</circle><circle cx="64.142" cy="35.858" fill="undefined" r="3.6">
  <animate attributeName="r" values="3.5999999999999996;3.5999999999999996;6;3.5999999999999996;3.5999999999999996" times="0;0.1;0.2;0.3;1" dur="1s" repeatCount="indefinite" begin="0s"></animate>
  <animate attributeName="fill" values="#FFF;#FFF;#FFF;#FFF;#FFF" repeatCount="indefinite" times="0;0.1;0.2;0.3;1" dur="1s" begin="0s"></animate>
</circle></svg>