<svg width="40" height="65" viewBox="0 0 40 65" fill="none" xmlns="http://www.w3.org/2000/svg">
<path d="M40 20.1942C40 31.3471 31.0457 40.3883 20 40.3883C8.9543 40.3883 0 31.3471 0 20.1942C0 9.04124 8.9543 0 20 0C31.0457 0 40 9.04124 40 20.1942Z" fill="#242424"/>
<path d="M0 20.1942C0 31.3471 8.9543 40.3883 20 40.3883L0 65V42.5971V20.1942Z" fill="#242424"/>
<path d="M0 20.1942C0 31.3471 8.9543 40.3883 20 40.3883L0 65V42.5971V20.1942Z" fill="#565656"/>
<path d="M40 20.1942C40 31.3471 31.0457 40.3883 20 40.3883C8.9543 40.3883 0 31.3471 0 20.1942C0 9.04124 8.9543 0 20 0C31.0457 0 40 9.04124 40 20.1942Z" fill="#242424"/>
<path d="M21.032 29.24C19.336 29.24 17.8 28.872 16.424 28.136C15.064 27.384 13.992 26.352 13.208 25.04C12.44 23.728 12.056 22.248 12.056 20.6C12.056 18.952 12.448 17.472 13.232 16.16C14.016 14.848 15.088 13.824 16.448 13.088C17.824 12.336 19.36 11.96 21.056 11.96C22.432 11.96 23.688 12.2 24.824 12.68C25.96 13.16 26.92 13.856 27.704 14.768L25.688 16.664C24.472 15.352 22.976 14.696 21.2 14.696C20.048 14.696 19.016 14.952 18.104 15.464C17.192 15.96 16.48 16.656 15.968 17.552C15.456 18.448 15.2 19.464 15.2 20.6C15.2 21.736 15.456 22.752 15.968 23.648C16.48 24.544 17.192 25.248 18.104 25.76C19.016 26.256 20.048 26.504 21.2 26.504C22.976 26.504 24.472 25.84 25.688 24.512L27.704 26.432C26.92 27.344 25.952 28.04 24.8 28.52C23.664 29 22.408 29.24 21.032 29.24Z" fill="white"/>
<path d="M39.5 20.1942C39.5 31.0755 30.765 39.8883 20 39.8883C9.23499 39.8883 0.5 31.0755 0.5 20.1942C0.5 9.31282 9.23499 0.5 20 0.5C30.765 0.5 39.5 9.31282 39.5 20.1942Z" fill="white" stroke="#242424"/>
<path d="M6.961 23.084C6.57367 23.084 6.21433 23.021 5.883 22.895C5.55633 22.769 5.27167 22.5917 5.029 22.363C4.791 22.1343 4.60433 21.866 4.469 21.558C4.33833 21.25 4.273 20.914 4.273 20.55C4.273 20.186 4.33833 19.85 4.469 19.542C4.60433 19.234 4.79333 18.9657 5.036 18.737C5.27867 18.5083 5.56333 18.331 5.89 18.205C6.21667 18.079 6.57133 18.016 6.954 18.016C7.34133 18.016 7.696 18.079 8.018 18.205C8.34467 18.331 8.627 18.5083 8.865 18.737C9.10767 18.9657 9.29667 19.234 9.432 19.542C9.56733 19.8453 9.635 20.1813 9.635 20.55C9.635 20.914 9.56733 21.2523 9.432 21.565C9.29667 21.873 9.10767 22.1413 8.865 22.37C8.627 22.594 8.34467 22.769 8.018 22.895C7.696 23.021 7.34367 23.084 6.961 23.084ZM6.954 22.118C7.17333 22.118 7.374 22.0807 7.556 22.006C7.74267 21.9313 7.906 21.824 8.046 21.684C8.186 21.544 8.29333 21.3783 8.368 21.187C8.44733 20.9957 8.487 20.7833 8.487 20.55C8.487 20.3167 8.44733 20.1043 8.368 19.913C8.29333 19.7217 8.186 19.556 8.046 19.416C7.91067 19.276 7.74967 19.1687 7.563 19.094C7.37633 19.0193 7.17333 18.982 6.954 18.982C6.73467 18.982 6.53167 19.0193 6.345 19.094C6.163 19.1687 6.002 19.276 5.862 19.416C5.722 19.556 5.61233 19.7217 5.533 19.913C5.45833 20.1043 5.421 20.3167 5.421 20.55C5.421 20.7787 5.45833 20.991 5.533 21.187C5.61233 21.3783 5.71967 21.544 5.855 21.684C5.995 21.824 6.15833 21.9313 6.345 22.006C6.53167 22.0807 6.73467 22.118 6.954 22.118ZM13.0843 23.084C12.3889 23.084 11.8453 22.8903 11.4533 22.503C11.0613 22.1157 10.8653 21.5627 10.8653 20.844V18.1H11.9993V20.802C11.9993 21.2687 12.0949 21.6047 12.2863 21.81C12.4776 22.0153 12.7459 22.118 13.0913 22.118C13.4366 22.118 13.7049 22.0153 13.8963 21.81C14.0876 21.6047 14.1833 21.2687 14.1833 20.802V18.1H15.3033V20.844C15.3033 21.5627 15.1073 22.1157 14.7153 22.503C14.3233 22.8903 13.7796 23.084 13.0843 23.084ZM17.7768 23V19.024H16.2088V18.1H20.4788V19.024H18.9108V23H17.7768ZM21.509 23V18.1H22.643V22.076H25.1V23H21.509ZM27.1966 20.074H29.5556V20.956H27.1966V20.074ZM27.2806 22.09H29.9476V23H26.1536V18.1H29.8566V19.01H27.2806V22.09ZM32.2849 23V19.024H30.7169V18.1H34.9869V19.024H33.4189V23H32.2849Z" fill="#242424"/>
</svg>
