<svg width="15" height="15" viewBox="0 0 15 15" fill="none" xmlns="http://www.w3.org/2000/svg">
<path d="M12 4L5.70418 11L3 7.92371" stroke="#60BC51" stroke-width="1.5" stroke-linecap="round" stroke-linejoin="round"/>
</svg>
